<svg xmlns="http://www.w3.org/2000/svg" width="23" height="14" viewBox="0 0 23 14">
  <defs>
    <style>
      .cls-1 {
        fill: #898989;
        fill-rule: evenodd;
      }
    </style>
  </defs>
  <path id="arrow-right" class="cls-1" d="M1206.67,2229.32l-6.83-6.05a1.179,1.179,0,0,0-1.52,0,0.884,0.884,0,0,0,0,1.34l5.02,4.44h-18.26a0.952,0.952,0,1,0,0,1.89h18.26l-5.02,4.44a0.884,0.884,0,0,0,0,1.34,1.2,1.2,0,0,0,1.52,0l6.83-6.06A0.87,0.87,0,0,0,1206.67,2229.32Z" transform="translate(-1184 -2223)"/>
</svg>
