<svg xmlns="http://www.w3.org/2000/svg" width="34" height="65" viewBox="0 0 34 65">
  <defs>
    <style>
      .cls-1 {
        fill: #fff;
        fill-rule: evenodd;
      }
    </style>
  </defs>
  <path id="_" data-name="&gt;" class="cls-1" d="M1446.11,1505.87l0.27,0.68c0.18,0.54.44,0.54,0.8,0.27l32.48-31.03a1.171,1.171,0,0,0,0-1.63l-32.48-31.98c-0.36-.27-0.62-0.27-0.8.28l-0.27.68a1.019,1.019,0,0,0,.18,1.22l31.14,30.62-31.14,29.66A1.032,1.032,0,0,0,1446.11,1505.87Z" transform="translate(-1446 -1442)"/>
</svg>
